%!PS-Adobe-3.0 EPSF-3.0
%%DocumentNeededResources: font Helvetica
%%+ font Helvetica-Bold
%%+ font Helvetica-Oblique
%%+ font Helvetica-BoldOblique
%%+ font Symbol
%%Title: R Graphics Output
%%Creator: R Software
%%Pages: (atend)
%%BoundingBox: 0 0 418 412
%%EndComments
%%BeginProlog
/bp  { gs sRGB gs } def
% begin .ps.prolog
/gs  { gsave } bind def
/gr  { grestore } bind def
/ep  { showpage gr gr } bind def
/m   { moveto } bind def
/l  { rlineto } bind def
/np  { newpath } bind def
/cp  { closepath } bind def
/f   { fill } bind def
/o   { stroke } bind def
/c   { newpath 0 360 arc } bind def
/r   { 4 2 roll moveto 1 copy 3 -1 roll exch 0 exch rlineto 0 rlineto -1 mul 0 exch rlineto closepath } bind def
/p1  { stroke } bind def
/p2  { gsave bg fill grestore newpath } bind def
/p3  { gsave bg fill grestore stroke } bind def
/p6  { gsave bg eofill grestore newpath } bind def
/p7  { gsave bg eofill grestore stroke } bind def
/t   { 5 -2 roll moveto gsave rotate
       1 index stringwidth pop
       mul neg 0 rmoveto show grestore } bind def
/ta  { 4 -2 roll moveto gsave rotate show } bind def
/tb  { 2 -1 roll 0 rmoveto show } bind def
/cl  { grestore gsave newpath 3 index 3 index moveto 1 index
       4 -1 roll lineto  exch 1 index lineto lineto
       closepath clip newpath } bind def
/rgb { setrgbcolor } bind def
/s   { scalefont setfont } bind def
% end   .ps.prolog
/sRGB { [ /CIEBasedABC
          << /DecodeLMN
               [ { dup 0.03928 le
                        {12.92321 div}
                        {0.055 add 1.055 div 2.4 exp }
                     ifelse
                 } bind dup dup
               ]
             /MatrixLMN [0.412457 0.212673 0.019334
                         0.357576 0.715152 0.119192
                         0.180437 0.072175 0.950301]
             /WhitePoint [0.9505 1.0 1.0890]
           >>
         ] setcolorspace } bind def
/srgb { setcolor } bind def
%%IncludeResource: font Helvetica
/Helvetica findfont
dup length dict begin
  {1 index /FID ne {def} {pop pop} ifelse} forall
  /Encoding ISOLatin1Encoding def
  currentdict
  end
/Font1 exch definefont pop
%%IncludeResource: font Helvetica-Bold
/Helvetica-Bold findfont
dup length dict begin
  {1 index /FID ne {def} {pop pop} ifelse} forall
  /Encoding ISOLatin1Encoding def
  currentdict
  end
/Font2 exch definefont pop
%%IncludeResource: font Helvetica-Oblique
/Helvetica-Oblique findfont
dup length dict begin
  {1 index /FID ne {def} {pop pop} ifelse} forall
  /Encoding ISOLatin1Encoding def
  currentdict
  end
/Font3 exch definefont pop
%%IncludeResource: font Helvetica-BoldOblique
/Helvetica-BoldOblique findfont
dup length dict begin
  {1 index /FID ne {def} {pop pop} ifelse} forall
  /Encoding ISOLatin1Encoding def
  currentdict
  end
/Font4 exch definefont pop
%%IncludeResource: font Symbol
/Symbol findfont
dup length dict begin
  {1 index /FID ne {def} {pop pop} ifelse} forall
  currentdict
  end
/Font5 exch definefont pop
%%EndProlog
%%Page: 1 1
bp
/bg { 1 1 1 srgb } def
0.00 0.00 418.50 411.75 r p2
59.04 73.44 388.26 352.71 cl
59.04 73.44 388.26 352.71 cl
0.6000 0.6000 0.6000 srgb
3.00 setlinewidth
[] 0 setdash
1 setlinecap
1 setlinejoin
10.00 setmiterlimit
np
74.32 193.72 m
9.87 20.83 l
o
np
92.05 226.45 m
6.49 7.32 l
o
np
106.89 245.41 m
8.91 15.62 l
o
np
125.35 271.29 m
4.08 2.73 l
o
np
141.20 273.74 m
4.46 -3.30 l
o
np
155.74 271.95 m
7.47 10.10 l
o
np
174.69 288.24 m
1.66 0.09 l
o
np
189.81 292.26 m
3.50 1.97 l
o
np
206.67 299.01 m
1.87 0.33 l
o
np
222.68 302.03 m
1.94 0.40 l
o
np
238.71 302.33 m
1.97 -0.42 l
o
np
254.91 300.16 m
1.65 -0.05 l
o
np
270.55 297.50 m
2.46 -0.87 l
o
np
286.77 296.06 m
2.11 0.55 l
o
np
302.87 300.02 m
2.00 0.46 l
o
np
318.01 305.86 m
3.80 2.35 l
o
np
334.93 310.30 m
2.05 -0.50 l
o
np
351.17 308.50 m
1.66 0.09 l
o
np
367.22 309.11 m
1.65 0.03 l
o
71.23 187.22 2.70 c p1
87.28 221.06 2.70 c p1
103.32 239.15 2.70 c p1
119.36 267.28 2.70 c p1
135.41 278.02 2.70 c p1
151.45 266.16 2.70 c p1
167.50 287.84 2.70 c p1
183.54 288.72 2.70 c p1
199.58 297.76 2.70 c p1
215.63 300.60 2.70 c p1
231.67 303.86 2.70 c p1
247.72 300.38 2.70 c p1
263.76 299.89 2.70 c p1
279.80 294.24 2.70 c p1
295.85 298.43 2.70 c p1
311.89 302.07 2.70 c p1
327.94 312.00 2.70 c p1
343.98 308.10 2.70 c p1
360.02 308.99 2.70 c p1
376.07 309.27 2.70 c p1
0.00 0.00 418.50 411.75 cl
0 0 0 srgb
0.75 setlinewidth
[] 0 setdash
1 setlinecap
1 setlinejoin
10.00 setmiterlimit
np
65.01 73.44 m
311.06 0 l
o
np
65.01 73.44 m
0 -7.20 l
o
np
127.22 73.44 m
0 -7.20 l
o
np
189.43 73.44 m
0 -7.20 l
o
np
251.64 73.44 m
0 -7.20 l
o
np
313.86 73.44 m
0 -7.20 l
o
np
376.07 73.44 m
0 -7.20 l
o
/Font1 findfont 16 s
65.01 47.52 (0) .5 0 t
127.22 47.52 (100) .5 0 t
189.43 47.52 (200) .5 0 t
251.64 47.52 (300) .5 0 t
313.86 47.52 (400) .5 0 t
376.07 47.52 (500) .5 0 t
np
59.04 83.78 m
0 258.59 l
o
np
59.04 83.78 m
-7.20 0 l
o
np
59.04 135.50 m
-7.20 0 l
o
np
59.04 187.22 m
-7.20 0 l
o
np
59.04 238.93 m
-7.20 0 l
o
np
59.04 290.65 m
-7.20 0 l
o
np
59.04 342.37 m
-7.20 0 l
o
41.76 83.78 (0.0) .5 90 t
41.76 135.50 (0.2) .5 90 t
41.76 187.22 (0.4) .5 90 t
41.76 238.93 (0.6) .5 90 t
41.76 290.65 (0.8) .5 90 t
41.76 342.37 (1.0) .5 90 t
np
59.04 73.44 m
329.22 0 l
0 279.27 l
-329.22 0 l
0 -279.27 l
o
59.04 73.44 388.26 352.71 cl
0.9020 0.6235 0 srgb
3.00 setlinewidth
[ 9.00 15.00] 0 setdash
1 setlinecap
1 setlinejoin
10.00 setmiterlimit
np
81.76 0.00 m
4.74 43.34 l
o
np
90.11 57.12 m
10.38 24.24 l
o
np
107.88 93.55 m
6.92 8.45 l
o
np
125.01 112.04 m
4.75 3.76 l
o
np
141.66 123.83 m
3.54 2.02 l
o
np
158.04 132.31 m
2.86 1.26 l
o
np
174.29 138.86 m
2.46 0.87 l
o
np
190.45 144.16 m
2.22 0.65 l
o
np
206.57 148.57 m
2.07 0.52 l
o
np
222.67 152.34 m
1.96 0.42 l
o
np
238.75 155.61 m
1.89 0.36 l
o
np
254.82 158.50 m
1.84 0.31 l
o
np
270.88 161.07 m
1.80 0.27 l
o
np
286.94 163.38 m
1.77 0.24 l
o
np
302.99 165.48 m
1.76 0.22 l
o
np
319.05 167.40 m
1.73 0.20 l
o
np
335.10 169.16 m
1.72 0.18 l
o
np
351.15 170.79 m
1.71 0.17 l
o
np
367.19 172.30 m
1.71 0.16 l
o
3.00 setlinewidth
[] 0 setdash
84.88 48.11 4.79 4.79 r p1
100.93 85.59 4.79 4.79 r p1
116.97 105.18 4.79 4.79 r p1
133.02 117.87 4.79 4.79 r p1
149.06 127.02 4.79 4.79 r p1
165.10 134.07 4.79 4.79 r p1
181.15 139.74 4.79 4.79 r p1
197.19 144.44 4.79 4.79 r p1
213.24 148.43 4.79 4.79 r p1
229.28 151.88 4.79 4.79 r p1
245.32 154.91 4.79 4.79 r p1
261.37 157.60 4.79 4.79 r p1
277.41 160.02 4.79 4.79 r p1
293.45 162.20 4.79 4.79 r p1
309.50 164.19 4.79 4.79 r p1
325.54 166.02 4.79 4.79 r p1
341.59 167.70 4.79 4.79 r p1
357.63 169.26 4.79 4.79 r p1
373.67 170.71 4.79 4.79 r p1
0.3373 0.7059 0.9137 srgb
3.00 setlinewidth
[ 0.00 12.00] 0 setdash
np
74.66 219.41 m
9.19 16.99 l
o
np
90.05 249.38 m
10.50 25.12 l
o
np
110.51 281.57 m
1.67 0.09 l
o
np
124.92 277.51 m
4.93 -4.05 l
o
np
139.08 275.07 m
8.70 14.68 l
o
np
157.17 300.32 m
4.61 3.54 l
o
np
172.47 303.04 m
6.10 -6.40 l
o
np
189.25 295.82 m
4.62 3.54 l
o
np
205.57 307.74 m
4.08 2.74 l
o
np
222.81 314.05 m
1.68 -0.10 l
o
np
237.24 308.95 m
4.90 -4.01 l
o
np
254.09 303.73 m
3.29 1.72 l
o
np
270.94 308.31 m
1.68 -0.11 l
o
np
285.88 311.59 m
3.89 2.48 l
o
np
303.04 318.13 m
1.65 0.04 l
o
np
318.99 317.17 m
1.84 -0.31 l
o
np
334.28 319.07 m
3.35 1.78 l
o
np
351.08 323.05 m
1.84 -0.32 l
o
np
367.20 320.90 m
1.69 -0.14 l
o
3.00 setlinewidth
[] 0 setdash
np
71.23 209.69 m
3.39 3.39 l
-3.39 3.38 l
-3.38 -3.38 l
3.38 -3.39 l
o
np
87.28 239.35 m
3.38 3.39 l
-3.38 3.38 l
-3.39 -3.38 l
3.39 -3.39 l
o
np
103.32 277.76 m
3.39 3.39 l
-3.39 3.38 l
-3.38 -3.38 l
3.38 -3.39 l
o
np
119.36 278.70 m
3.39 3.38 l
-3.39 3.39 l
-3.38 -3.39 l
3.38 -3.38 l
o
np
135.41 265.50 m
3.38 3.38 l
-3.38 3.38 l
-3.39 -3.38 l
3.39 -3.38 l
o
np
151.45 292.56 m
3.39 3.38 l
-3.39 3.38 l
-3.38 -3.38 l
3.38 -3.38 l
o
np
167.50 304.86 m
3.38 3.39 l
-3.38 3.38 l
-3.39 -3.38 l
3.39 -3.39 l
o
np
183.54 288.05 m
3.38 3.39 l
-3.38 3.38 l
-3.38 -3.38 l
3.38 -3.39 l
o
np
199.58 300.35 m
3.39 3.39 l
-3.39 3.38 l
-3.38 -3.38 l
3.38 -3.39 l
o
np
215.63 311.10 m
3.38 3.38 l
-3.38 3.39 l
-3.39 -3.39 l
3.39 -3.38 l
o
np
231.67 310.13 m
3.39 3.38 l
-3.39 3.38 l
-3.38 -3.38 l
3.38 -3.38 l
o
np
247.72 297.00 m
3.38 3.38 l
-3.38 3.39 l
-3.39 -3.39 l
3.39 -3.38 l
o
np
263.76 305.41 m
3.38 3.39 l
-3.38 3.38 l
-3.38 -3.38 l
3.38 -3.39 l
o
np
279.80 304.33 m
3.39 3.39 l
-3.39 3.38 l
-3.38 -3.38 l
3.38 -3.39 l
o
np
295.85 314.55 m
3.38 3.39 l
-3.38 3.38 l
-3.39 -3.38 l
3.39 -3.39 l
o
np
311.89 314.98 m
3.39 3.38 l
-3.39 3.38 l
-3.38 -3.38 l
3.38 -3.38 l
o
np
327.94 312.29 m
3.38 3.38 l
-3.38 3.39 l
-3.39 -3.39 l
3.39 -3.38 l
o
np
343.98 320.86 m
3.38 3.39 l
-3.38 3.38 l
-3.39 -3.38 l
3.39 -3.39 l
o
np
360.02 318.15 m
3.39 3.38 l
-3.39 3.38 l
-3.38 -3.38 l
3.38 -3.38 l
o
np
376.07 316.74 m
3.38 3.39 l
-3.38 3.38 l
-3.39 -3.38 l
3.39 -3.39 l
o
0.00 0.00 418.50 411.75 cl
/Font1 findfont 16 s
0 0 0 srgb
223.65 18.72 (N) .5 0 t
12.96 213.08 (Error) .5 90 t
59.04 73.44 388.26 352.71 cl
0.6000 0.6000 0.6000 srgb
1.50 setlinewidth
[] 0 setdash
1 setlinecap
1 setlinejoin
10.00 setmiterlimit
np
267.09 116.64 m
21.60 0 l
o
0.9020 0.6235 0 srgb
1.50 setlinewidth
[ 4.50 7.50] 0 setdash
np
267.09 102.24 m
21.60 0 l
o
0.3373 0.7059 0.9137 srgb
1.50 setlinewidth
[ 0.00 6.00] 0 setdash
np
267.09 87.84 m
21.60 0 l
o
0.6000 0.6000 0.6000 srgb
1.50 setlinewidth
[] 0 setdash
277.89 116.64 2.70 c p1
0.9020 0.6235 0 srgb
275.49 99.85 4.79 4.79 r p1
0.3373 0.7059 0.9137 srgb
np
277.89 84.46 m
3.38 3.38 l
-3.38 3.38 l
-3.39 -3.38 l
3.39 -3.38 l
o
/Font1 findfont 16 s
0 0 0 srgb
299.49 110.90 (Exact Sampling) 0 0 t
299.49 96.50 (Bound) 0 0 t
299.49 82.10 (Gib) 0 ta
-0.160 (bs) tb gr
ep
%%Trailer
%%Pages: 1
%%EOF
