%!PS-Adobe-3.0 EPSF-3.0
%%DocumentNeededResources: font Helvetica
%%+ font Helvetica-Bold
%%+ font Helvetica-Oblique
%%+ font Helvetica-BoldOblique
%%+ font Symbol
%%Title: R Graphics Output
%%Creator: R Software
%%Pages: (atend)
%%BoundingBox: 0 0 375 375
%%EndComments
%%BeginProlog
/bp  { gs sRGB gs } def
% begin .ps.prolog
/gs  { gsave } bind def
/gr  { grestore } bind def
/ep  { showpage gr gr } bind def
/m   { moveto } bind def
/l  { rlineto } bind def
/np  { newpath } bind def
/cp  { closepath } bind def
/f   { fill } bind def
/o   { stroke } bind def
/c   { newpath 0 360 arc } bind def
/r   { 4 2 roll moveto 1 copy 3 -1 roll exch 0 exch rlineto 0 rlineto -1 mul 0 exch rlineto closepath } bind def
/p1  { stroke } bind def
/p2  { gsave bg fill grestore newpath } bind def
/p3  { gsave bg fill grestore stroke } bind def
/p6  { gsave bg eofill grestore newpath } bind def
/p7  { gsave bg eofill grestore stroke } bind def
/t   { 5 -2 roll moveto gsave rotate
       1 index stringwidth pop
       mul neg 0 rmoveto show grestore } bind def
/ta  { 4 -2 roll moveto gsave rotate show } bind def
/tb  { 2 -1 roll 0 rmoveto show } bind def
/cl  { grestore gsave newpath 3 index 3 index moveto 1 index
       4 -1 roll lineto  exch 1 index lineto lineto
       closepath clip newpath } bind def
/rgb { setrgbcolor } bind def
/s   { scalefont setfont } bind def
% end   .ps.prolog
/sRGB { [ /CIEBasedABC
          << /DecodeLMN
               [ { dup 0.03928 le
                        {12.92321 div}
                        {0.055 add 1.055 div 2.4 exp }
                     ifelse
                 } bind dup dup
               ]
             /MatrixLMN [0.412457 0.212673 0.019334
                         0.357576 0.715152 0.119192
                         0.180437 0.072175 0.950301]
             /WhitePoint [0.9505 1.0 1.0890]
           >>
         ] setcolorspace } bind def
/srgb { setcolor } bind def
%%IncludeResource: font Helvetica
/Helvetica findfont
dup length dict begin
  {1 index /FID ne {def} {pop pop} ifelse} forall
  /Encoding ISOLatin1Encoding def
  currentdict
  end
/Font1 exch definefont pop
%%IncludeResource: font Helvetica-Bold
/Helvetica-Bold findfont
dup length dict begin
  {1 index /FID ne {def} {pop pop} ifelse} forall
  /Encoding ISOLatin1Encoding def
  currentdict
  end
/Font2 exch definefont pop
%%IncludeResource: font Helvetica-Oblique
/Helvetica-Oblique findfont
dup length dict begin
  {1 index /FID ne {def} {pop pop} ifelse} forall
  /Encoding ISOLatin1Encoding def
  currentdict
  end
/Font3 exch definefont pop
%%IncludeResource: font Helvetica-BoldOblique
/Helvetica-BoldOblique findfont
dup length dict begin
  {1 index /FID ne {def} {pop pop} ifelse} forall
  /Encoding ISOLatin1Encoding def
  currentdict
  end
/Font4 exch definefont pop
%%IncludeResource: font Symbol
/Symbol findfont
dup length dict begin
  {1 index /FID ne {def} {pop pop} ifelse} forall
  currentdict
  end
/Font5 exch definefont pop
%%EndProlog
%%Page: 1 1
bp
/bg { 1 1 1 srgb } def
0.00 0.00 375.00 375.00 r p2
59.04 73.44 344.76 315.96 cl
59.04 73.44 344.76 315.96 cl
0.7451 0.7451 0.7451 srgb
3.00 setlinewidth
[] 0 setdash
1 setlinecap
1 setlinejoin
10.00 setmiterlimit
np
76.80 306.43 m
15.04 -1.15 l
o
np
106.20 304.18 m
15.03 -1.15 l
o
np
135.59 303.03 m
15.04 1.15 l
o
np
164.99 305.28 m
15.03 1.15 l
o
np
194.22 305.37 m
15.36 -3.52 l
o
np
223.62 301.85 m
15.35 3.52 l
o
np
253.17 306.43 m
15.04 -1.15 l
o
np
282.59 304.73 m
14.99 0 l
o
np
311.98 304.73 m
15.00 0 l
o
69.62 306.98 2.70 c p1
99.02 304.73 2.70 c p1
128.41 302.49 2.70 c p1
157.81 304.73 2.70 c p1
187.20 306.98 2.70 c p1
216.60 300.24 2.70 c p1
245.99 306.98 2.70 c p1
275.39 304.73 2.70 c p1
304.78 304.73 2.70 c p1
334.18 304.73 2.70 c p1
0.00 0.00 375.00 375.00 cl
0 0 0 srgb
0.75 setlinewidth
[] 0 setdash
1 setlinecap
1 setlinejoin
10.00 setmiterlimit
np
69.62 73.44 m
264.56 0 l
o
np
69.62 73.44 m
0 -7.20 l
o
np
122.53 73.44 m
0 -7.20 l
o
np
175.44 73.44 m
0 -7.20 l
o
np
228.36 73.44 m
0 -7.20 l
o
np
281.27 73.44 m
0 -7.20 l
o
np
334.18 73.44 m
0 -7.20 l
o
/Font1 findfont 16 s
69.62 47.52 (0.0) .5 0 t
122.53 47.52 (0.2) .5 0 t
175.44 47.52 (0.4) .5 0 t
228.36 47.52 (0.6) .5 0 t
281.27 47.52 (0.8) .5 0 t
334.18 47.52 (1.0) .5 0 t
np
59.04 82.42 m
0 224.56 l
o
np
59.04 82.42 m
-7.20 0 l
o
np
59.04 127.33 m
-7.20 0 l
o
np
59.04 172.24 m
-7.20 0 l
o
np
59.04 217.16 m
-7.20 0 l
o
np
59.04 262.07 m
-7.20 0 l
o
np
59.04 306.98 m
-7.20 0 l
o
41.76 82.42 (0.0) .5 90 t
41.76 127.33 (0.2) .5 90 t
41.76 172.24 (0.4) .5 90 t
41.76 217.16 (0.6) .5 90 t
41.76 262.07 (0.8) .5 90 t
41.76 306.98 (1.0) .5 90 t
np
59.04 73.44 m
285.72 0 l
0 242.52 l
-285.72 0 l
0 -242.52 l
o
59.04 73.44 344.76 315.96 cl
0.8039 0.6078 0.1137 srgb
3.00 setlinewidth
[ 9.00 15.00] 0 setdash
1 setlinecap
1 setlinejoin
10.00 setmiterlimit
np
76.82 273.25 m
15.00 0 l
o
np
106.22 273.25 m
14.99 0 l
o
np
135.61 273.25 m
15.00 0 l
o
np
165.01 273.25 m
14.99 0 l
o
np
194.40 273.25 m
15.00 0 l
o
np
223.80 273.25 m
14.99 0 l
o
np
253.19 273.25 m
15.00 0 l
o
np
282.59 273.25 m
14.99 0 l
o
np
311.98 273.25 m
15.00 0 l
o
3.00 setlinewidth
[] 0 setdash
67.23 270.86 4.79 4.79 r p1
96.62 270.86 4.79 4.79 r p1
126.02 270.86 4.79 4.79 r p1
155.41 270.86 4.79 4.79 r p1
184.81 270.86 4.79 4.79 r p1
214.20 270.86 4.79 4.79 r p1
243.60 270.86 4.79 4.79 r p1
272.99 270.86 4.79 4.79 r p1
302.39 270.86 4.79 4.79 r p1
331.78 270.86 4.79 4.79 r p1
0.00 0.00 375.00 375.00 cl
/Font5 findfont 16 s
0 0 0 srgb
197.51 22.29 (b) 0 0 t
/Font1 findfont 16 s
12.96 194.70 (Error) .5 90 t
ep
%%Trailer
%%Pages: 1
%%EOF
