%!PS-Adobe-3.0 EPSF-3.0
%%DocumentNeededResources: font Helvetica
%%+ font Helvetica-Bold
%%+ font Helvetica-Oblique
%%+ font Helvetica-BoldOblique
%%+ font Symbol
%%Title: R Graphics Output
%%Creator: R Software
%%Pages: (atend)
%%BoundingBox: 0 0 289 289
%%EndComments
%%BeginProlog
/bp  { gs sRGB gs } def
% begin .ps.prolog
/gs  { gsave } bind def
/gr  { grestore } bind def
/ep  { showpage gr gr } bind def
/m   { moveto } bind def
/l  { rlineto } bind def
/np  { newpath } bind def
/cp  { closepath } bind def
/f   { fill } bind def
/o   { stroke } bind def
/c   { newpath 0 360 arc } bind def
/r   { 4 2 roll moveto 1 copy 3 -1 roll exch 0 exch rlineto 0 rlineto -1 mul 0 exch rlineto closepath } bind def
/p1  { stroke } bind def
/p2  { gsave bg fill grestore newpath } bind def
/p3  { gsave bg fill grestore stroke } bind def
/p6  { gsave bg eofill grestore newpath } bind def
/p7  { gsave bg eofill grestore stroke } bind def
/t   { 5 -2 roll moveto gsave rotate
       1 index stringwidth pop
       mul neg 0 rmoveto show grestore } bind def
/ta  { 4 -2 roll moveto gsave rotate show } bind def
/tb  { 2 -1 roll 0 rmoveto show } bind def
/cl  { grestore gsave newpath 3 index 3 index moveto 1 index
       4 -1 roll lineto  exch 1 index lineto lineto
       closepath clip newpath } bind def
/rgb { setrgbcolor } bind def
/s   { scalefont setfont } bind def
% end   .ps.prolog
/sRGB { [ /CIEBasedABC
          << /DecodeLMN
               [ { dup 0.03928 le
                        {12.92321 div}
                        {0.055 add 1.055 div 2.4 exp }
                     ifelse
                 } bind dup dup
               ]
             /MatrixLMN [0.412457 0.212673 0.019334
                         0.357576 0.715152 0.119192
                         0.180437 0.072175 0.950301]
             /WhitePoint [0.9505 1.0 1.0890]
           >>
         ] setcolorspace } bind def
/srgb { setcolor } bind def
%%IncludeResource: font Helvetica
/Helvetica findfont
dup length dict begin
  {1 index /FID ne {def} {pop pop} ifelse} forall
  /Encoding ISOLatin1Encoding def
  currentdict
  end
/Font1 exch definefont pop
%%IncludeResource: font Helvetica-Bold
/Helvetica-Bold findfont
dup length dict begin
  {1 index /FID ne {def} {pop pop} ifelse} forall
  /Encoding ISOLatin1Encoding def
  currentdict
  end
/Font2 exch definefont pop
%%IncludeResource: font Helvetica-Oblique
/Helvetica-Oblique findfont
dup length dict begin
  {1 index /FID ne {def} {pop pop} ifelse} forall
  /Encoding ISOLatin1Encoding def
  currentdict
  end
/Font3 exch definefont pop
%%IncludeResource: font Helvetica-BoldOblique
/Helvetica-BoldOblique findfont
dup length dict begin
  {1 index /FID ne {def} {pop pop} ifelse} forall
  /Encoding ISOLatin1Encoding def
  currentdict
  end
/Font4 exch definefont pop
%%IncludeResource: font Symbol
/Symbol findfont
dup length dict begin
  {1 index /FID ne {def} {pop pop} ifelse} forall
  currentdict
  end
/Font5 exch definefont pop
%%EndProlog
%%Page: 1 1
bp
/bg { 1 1 1 srgb } def
0.00 0.00 288.75 288.75 r p2
59.04 73.44 258.51 229.71 cl
59.04 73.44 258.51 229.71 cl
0.7451 0.7451 0.7451 srgb
3.00 setlinewidth
[] 0 setdash
1 setlinecap
1 setlinejoin
10.00 setmiterlimit
np
73.61 223.42 m
6.16 -0.44 l
o
np
94.13 221.97 m
6.16 -0.44 l
o
np
114.65 221.53 m
6.16 0.44 l
o
np
135.17 222.98 m
6.16 0.44 l
o
np
155.56 222.43 m
6.43 -1.36 l
o
np
176.08 221.07 m
6.43 1.36 l
o
np
196.74 223.42 m
6.16 -0.44 l
o
np
217.28 222.48 m
6.12 0 l
o
np
237.80 222.48 m
6.12 0 l
o
66.43 223.92 2.70 c p1
86.95 222.48 2.70 c p1
107.47 221.03 2.70 c p1
127.99 222.48 2.70 c p1
148.51 223.92 2.70 c p1
169.04 219.58 2.70 c p1
189.56 223.92 2.70 c p1
210.08 222.48 2.70 c p1
230.60 222.48 2.70 c p1
251.12 222.48 2.70 c p1
0.00 0.00 288.75 288.75 cl
0 0 0 srgb
0.75 setlinewidth
[] 0 setdash
1 setlinecap
1 setlinejoin
10.00 setmiterlimit
np
66.43 73.44 m
184.69 0 l
o
np
66.43 73.44 m
0 -7.20 l
o
np
103.37 73.44 m
0 -7.20 l
o
np
140.31 73.44 m
0 -7.20 l
o
np
177.24 73.44 m
0 -7.20 l
o
np
214.18 73.44 m
0 -7.20 l
o
np
251.12 73.44 m
0 -7.20 l
o
/Font1 findfont 16 s
66.43 47.52 (0.0) .5 0 t
103.37 47.52 (0.2) .5 0 t
140.31 47.52 (0.4) .5 0 t
177.24 47.52 (0.6) .5 0 t
214.18 47.52 (0.8) .5 0 t
251.12 47.52 (1.0) .5 0 t
np
59.04 79.23 m
0 144.69 l
o
np
59.04 79.23 m
-7.20 0 l
o
np
59.04 108.17 m
-7.20 0 l
o
np
59.04 137.11 m
-7.20 0 l
o
np
59.04 166.04 m
-7.20 0 l
o
np
59.04 194.98 m
-7.20 0 l
o
np
59.04 223.92 m
-7.20 0 l
o
41.76 79.23 (0.0) .5 90 t
41.76 137.11 (0.4) .5 90 t
41.76 194.98 (0.8) .5 90 t
np
59.04 73.44 m
199.47 0 l
0 156.27 l
-199.47 0 l
0 -156.27 l
o
59.04 73.44 258.51 229.71 cl
0.8039 0.6078 0.1137 srgb
3.00 setlinewidth
[ 9.00 15.00] 0 setdash
1 setlinecap
1 setlinejoin
10.00 setmiterlimit
np
73.63 202.19 m
6.12 0 l
o
np
94.15 202.19 m
6.12 0 l
o
np
114.67 202.19 m
6.12 0 l
o
np
135.19 202.19 m
6.12 0 l
o
np
155.71 202.19 m
6.13 0 l
o
np
176.24 202.19 m
6.12 0 l
o
np
196.76 202.19 m
6.12 0 l
o
np
217.28 202.19 m
6.12 0 l
o
np
237.80 202.19 m
6.12 0 l
o
3.00 setlinewidth
[] 0 setdash
64.03 199.80 4.79 4.79 r p1
84.56 199.80 4.79 4.79 r p1
105.08 199.80 4.79 4.79 r p1
125.60 199.80 4.79 4.79 r p1
146.12 199.80 4.79 4.79 r p1
166.64 199.80 4.79 4.79 r p1
187.16 199.80 4.79 4.79 r p1
207.69 199.80 4.79 4.79 r p1
228.21 199.80 4.79 4.79 r p1
248.73 199.80 4.79 4.79 r p1
0.00 0.00 288.75 288.75 cl
/Font5 findfont 16 s
0 0 0 srgb
154.38 22.29 (b) 0 0 t
/Font1 findfont 16 s
12.96 151.58 (Error) .5 90 t
ep
%%Trailer
%%Pages: 1
%%EOF
