%!PS-Adobe-3.0 EPSF-3.0
%%DocumentNeededResources: font Helvetica
%%+ font Helvetica-Bold
%%+ font Helvetica-Oblique
%%+ font Helvetica-BoldOblique
%%+ font Symbol
%%Title: R Graphics Output
%%Creator: R Software
%%Pages: (atend)
%%BoundingBox: 0 0 288 288
%%EndComments
%%BeginProlog
/bp  { gs sRGB gs } def
% begin .ps.prolog
/gs  { gsave } bind def
/gr  { grestore } bind def
/ep  { showpage gr gr } bind def
/m   { moveto } bind def
/l  { rlineto } bind def
/np  { newpath } bind def
/cp  { closepath } bind def
/f   { fill } bind def
/o   { stroke } bind def
/c   { newpath 0 360 arc } bind def
/r   { 4 2 roll moveto 1 copy 3 -1 roll exch 0 exch rlineto 0 rlineto -1 mul 0 exch rlineto closepath } bind def
/p1  { stroke } bind def
/p2  { gsave bg fill grestore newpath } bind def
/p3  { gsave bg fill grestore stroke } bind def
/p6  { gsave bg eofill grestore newpath } bind def
/p7  { gsave bg eofill grestore stroke } bind def
/t   { 5 -2 roll moveto gsave rotate
       1 index stringwidth pop
       mul neg 0 rmoveto show grestore } bind def
/ta  { 4 -2 roll moveto gsave rotate show } bind def
/tb  { 2 -1 roll 0 rmoveto show } bind def
/cl  { grestore gsave newpath 3 index 3 index moveto 1 index
       4 -1 roll lineto  exch 1 index lineto lineto
       closepath clip newpath } bind def
/rgb { setrgbcolor } bind def
/s   { scalefont setfont } bind def
% end   .ps.prolog
/sRGB { [ /CIEBasedABC
          << /DecodeLMN
               [ { dup 0.03928 le
                        {12.92321 div}
                        {0.055 add 1.055 div 2.4 exp }
                     ifelse
                 } bind dup dup
               ]
             /MatrixLMN [0.412457 0.212673 0.019334
                         0.357576 0.715152 0.119192
                         0.180437 0.072175 0.950301]
             /WhitePoint [0.9505 1.0 1.0890]
           >>
         ] setcolorspace } bind def
/srgb { setcolor } bind def
%%IncludeResource: font Helvetica
/Helvetica findfont
dup length dict begin
  {1 index /FID ne {def} {pop pop} ifelse} forall
  /Encoding ISOLatin1Encoding def
  currentdict
  end
/Font1 exch definefont pop
%%IncludeResource: font Helvetica-Bold
/Helvetica-Bold findfont
dup length dict begin
  {1 index /FID ne {def} {pop pop} ifelse} forall
  /Encoding ISOLatin1Encoding def
  currentdict
  end
/Font2 exch definefont pop
%%IncludeResource: font Helvetica-Oblique
/Helvetica-Oblique findfont
dup length dict begin
  {1 index /FID ne {def} {pop pop} ifelse} forall
  /Encoding ISOLatin1Encoding def
  currentdict
  end
/Font3 exch definefont pop
%%IncludeResource: font Helvetica-BoldOblique
/Helvetica-BoldOblique findfont
dup length dict begin
  {1 index /FID ne {def} {pop pop} ifelse} forall
  /Encoding ISOLatin1Encoding def
  currentdict
  end
/Font4 exch definefont pop
%%IncludeResource: font Symbol
/Symbol findfont
dup length dict begin
  {1 index /FID ne {def} {pop pop} ifelse} forall
  currentdict
  end
/Font5 exch definefont pop
%%EndProlog
%%Page: 1 1
bp
59.04 73.44 257.76 228.96 cl
0.7451 0.7451 0.7451 srgb
3.00 setlinewidth
[] 0 setdash
1 setlinecap
1 setlinejoin
10.00 setmiterlimit
np
158.40 204.48 m
0 0 l
o
np
158.40 190.08 m
0 -27.36 l
o
np
158.40 148.32 m
0 -30.24 l
o
np
158.40 103.68 m
0 -8.64 l
o
158.40 211.68 2.70 c p1
158.40 197.28 2.70 c p1
158.40 155.52 2.70 c p1
158.40 110.88 2.70 c p1
158.40 87.84 2.70 c p1
158.40 87.84 2.70 c p1
158.40 87.84 2.70 c p1
158.40 79.20 2.70 c p1
158.40 80.64 2.70 c p1
158.40 79.20 2.70 c p1
0.00 0.00 288.00 288.00 cl
0 0 0 srgb
0.75 setlinewidth
[] 0 setdash
1 setlinecap
1 setlinejoin
10.00 setmiterlimit
np
66.40 73.44 m
184.00 0 l
o
np
66.40 73.44 m
0 -7.20 l
o
np
112.40 73.44 m
0 -7.20 l
o
np
158.40 73.44 m
0 -7.20 l
o
np
204.40 73.44 m
0 -7.20 l
o
np
250.40 73.44 m
0 -7.20 l
o
/Font1 findfont 12 s
66.40 47.52 (6) .5 0 t
112.40 47.52 (8) .5 0 t
158.40 47.52 (10) .5 0 t
204.40 47.52 (12) .5 0 t
250.40 47.52 (14) .5 0 t
np
59.04 79.20 m
0 144.00 l
o
np
59.04 79.20 m
-7.20 0 l
o
np
59.04 108.00 m
-7.20 0 l
o
np
59.04 136.80 m
-7.20 0 l
o
np
59.04 165.60 m
-7.20 0 l
o
np
59.04 194.40 m
-7.20 0 l
o
np
59.04 223.20 m
-7.20 0 l
o
41.76 79.20 (0.0) .5 90 t
41.76 108.00 (0.2) .5 90 t
41.76 136.80 (0.4) .5 90 t
41.76 165.60 (0.6) .5 90 t
41.76 194.40 (0.8) .5 90 t
41.76 223.20 (1.0) .5 90 t
np
59.04 73.44 m
198.72 0 l
0 155.52 l
-198.72 0 l
0 -155.52 l
o
59.04 73.44 257.76 228.96 cl
0.8039 0.6078 0.1137 srgb
3.00 setlinewidth
[] 0 setdash
1 setlinecap
1 setlinejoin
10.00 setmiterlimit
156.01 174.22 4.79 4.79 r p1
0.3922 0.5843 0.9294 srgb
np
158.40 75.82 m
3.38 3.38 l
-3.38 3.38 l
-3.38 -3.38 l
3.38 -3.38 l
o
np
158.40 75.82 m
3.38 3.38 l
-3.38 3.38 l
-3.38 -3.38 l
3.38 -3.38 l
o
np
158.40 75.82 m
3.38 3.38 l
-3.38 3.38 l
-3.38 -3.38 l
3.38 -3.38 l
o
np
158.40 75.82 m
3.38 3.38 l
-3.38 3.38 l
-3.38 -3.38 l
3.38 -3.38 l
o
np
158.40 75.82 m
3.38 3.38 l
-3.38 3.38 l
-3.38 -3.38 l
3.38 -3.38 l
o
np
158.40 75.82 m
3.38 3.38 l
-3.38 3.38 l
-3.38 -3.38 l
3.38 -3.38 l
o
np
158.40 75.82 m
3.38 3.38 l
-3.38 3.38 l
-3.38 -3.38 l
3.38 -3.38 l
o
np
158.40 75.82 m
3.38 3.38 l
-3.38 3.38 l
-3.38 -3.38 l
3.38 -3.38 l
o
np
158.40 75.82 m
3.38 3.38 l
-3.38 3.38 l
-3.38 -3.38 l
3.38 -3.38 l
o
np
158.40 75.82 m
3.38 3.38 l
-3.38 3.38 l
-3.38 -3.38 l
3.38 -3.38 l
o
0.00 0.00 288.00 288.00 cl
/Font1 findfont 12 s
0 0 0 srgb
151.28 21.42 (|S|) 0 0 t
12.96 151.20 (Error) .5 90 t
ep
%%Trailer
%%Pages: 1
%%EOF
