%!PS-Adobe-3.0 EPSF-3.0
%%DocumentNeededResources: font Helvetica
%%+ font Helvetica-Bold
%%+ font Helvetica-Oblique
%%+ font Helvetica-BoldOblique
%%+ font Symbol
%%Title: R Graphics Output
%%Creator: R Software
%%Pages: (atend)
%%BoundingBox: 0 0 283 262
%%EndComments
%%BeginProlog
/bp  { gs sRGB gs } def
% begin .ps.prolog
/gs  { gsave } bind def
/gr  { grestore } bind def
/ep  { showpage gr gr } bind def
/m   { moveto } bind def
/l  { rlineto } bind def
/np  { newpath } bind def
/cp  { closepath } bind def
/f   { fill } bind def
/o   { stroke } bind def
/c   { newpath 0 360 arc } bind def
/r   { 4 2 roll moveto 1 copy 3 -1 roll exch 0 exch rlineto 0 rlineto -1 mul 0 exch rlineto closepath } bind def
/p1  { stroke } bind def
/p2  { gsave bg fill grestore newpath } bind def
/p3  { gsave bg fill grestore stroke } bind def
/p6  { gsave bg eofill grestore newpath } bind def
/p7  { gsave bg eofill grestore stroke } bind def
/t   { 5 -2 roll moveto gsave rotate
       1 index stringwidth pop
       mul neg 0 rmoveto show grestore } bind def
/ta  { 4 -2 roll moveto gsave rotate show } bind def
/tb  { 2 -1 roll 0 rmoveto show } bind def
/cl  { grestore gsave newpath 3 index 3 index moveto 1 index
       4 -1 roll lineto  exch 1 index lineto lineto
       closepath clip newpath } bind def
/rgb { setrgbcolor } bind def
/s   { scalefont setfont } bind def
% end   .ps.prolog
/sRGB { [ /CIEBasedABC
          << /DecodeLMN
               [ { dup 0.03928 le
                        {12.92321 div}
                        {0.055 add 1.055 div 2.4 exp }
                     ifelse
                 } bind dup dup
               ]
             /MatrixLMN [0.412457 0.212673 0.019334
                         0.357576 0.715152 0.119192
                         0.180437 0.072175 0.950301]
             /WhitePoint [0.9505 1.0 1.0890]
           >>
         ] setcolorspace } bind def
/srgb { setcolor } bind def
%%IncludeResource: font Helvetica
/Helvetica findfont
dup length dict begin
  {1 index /FID ne {def} {pop pop} ifelse} forall
  /Encoding ISOLatin1Encoding def
  currentdict
  end
/Font1 exch definefont pop
%%IncludeResource: font Helvetica-Bold
/Helvetica-Bold findfont
dup length dict begin
  {1 index /FID ne {def} {pop pop} ifelse} forall
  /Encoding ISOLatin1Encoding def
  currentdict
  end
/Font2 exch definefont pop
%%IncludeResource: font Helvetica-Oblique
/Helvetica-Oblique findfont
dup length dict begin
  {1 index /FID ne {def} {pop pop} ifelse} forall
  /Encoding ISOLatin1Encoding def
  currentdict
  end
/Font3 exch definefont pop
%%IncludeResource: font Helvetica-BoldOblique
/Helvetica-BoldOblique findfont
dup length dict begin
  {1 index /FID ne {def} {pop pop} ifelse} forall
  /Encoding ISOLatin1Encoding def
  currentdict
  end
/Font4 exch definefont pop
%%IncludeResource: font Symbol
/Symbol findfont
dup length dict begin
  {1 index /FID ne {def} {pop pop} ifelse} forall
  currentdict
  end
/Font5 exch definefont pop
%%EndProlog
%%Page: 1 1
bp
/bg { 1 1 1 srgb } def
0.00 0.00 282.75 261.75 r p2
59.04 73.44 252.51 202.71 cl
59.04 73.44 252.51 202.71 cl
0.7451 0.7451 0.7451 srgb
3.00 setlinewidth
[] 0 setdash
1 setlinecap
1 setlinejoin
10.00 setmiterlimit
np
73.10 167.72 m
8.60 2.58 l
o
np
95.37 174.81 m
8.85 3.19 l
o
np
118.18 180.01 m
8.02 -0.48 l
o
np
140.28 181.16 m
8.60 2.59 l
o
np
162.55 188.26 m
8.84 3.19 l
o
np
185.35 194.32 m
8.02 0.48 l
o
np
207.76 195.23 m
7.99 0 l
o
np
230.10 196.09 m
8.10 0.97 l
o
66.21 165.65 2.70 c p1
88.60 172.37 2.70 c p1
110.99 180.44 2.70 c p1
133.38 179.09 2.70 c p1
155.77 185.82 2.70 c p1
178.17 193.89 2.70 c p1
200.56 195.23 2.70 c p1
222.95 195.23 2.70 c p1
245.34 197.92 2.70 c p1
0.00 0.00 282.75 261.75 cl
0 0 0 srgb
0.75 setlinewidth
[] 0 setdash
1 setlinecap
1 setlinejoin
10.00 setmiterlimit
np
66.21 73.44 m
176.34 0 l
o
np
66.21 73.44 m
0 -7.20 l
o
np
91.40 73.44 m
0 -7.20 l
o
np
116.59 73.44 m
0 -7.20 l
o
np
141.78 73.44 m
0 -7.20 l
o
np
166.97 73.44 m
0 -7.20 l
o
np
192.16 73.44 m
0 -7.20 l
o
np
217.35 73.44 m
0 -7.20 l
o
np
242.55 73.44 m
0 -7.20 l
o
/Font1 findfont 16 s
66.21 47.52 (0.2) .5 0 t
116.59 47.52 (0.4) .5 0 t
166.97 47.52 (0.6) .5 0 t
217.35 47.52 (0.8) .5 0 t
np
59.04 78.23 m
0 107.59 l
o
np
59.04 78.23 m
-7.20 0 l
o
np
59.04 105.13 m
-7.20 0 l
o
np
59.04 132.02 m
-7.20 0 l
o
np
59.04 158.92 m
-7.20 0 l
o
np
59.04 185.82 m
-7.20 0 l
o
41.76 78.23 (0.0) .5 90 t
41.76 132.02 (0.4) .5 90 t
41.76 185.82 (0.8) .5 90 t
np
59.04 73.44 m
193.47 0 l
0 129.27 l
-193.47 0 l
0 -129.27 l
o
59.04 73.44 252.51 202.71 cl
1 0.8431 0 srgb
3.00 setlinewidth
[ 9.00 15.00] 0 setdash
1 setlinecap
1 setlinejoin
10.00 setmiterlimit
np
73.22 147.51 m
8.36 1.94 l
o
np
95.61 152.69 m
8.37 1.94 l
o
np
118.00 157.87 m
8.37 1.94 l
o
np
140.40 163.06 m
8.36 1.93 l
o
np
162.79 168.24 m
8.36 1.93 l
o
np
185.18 173.42 m
8.36 1.93 l
o
np
207.57 178.60 m
8.37 1.93 l
o
np
229.97 183.78 m
8.36 1.93 l
o
3.00 setlinewidth
[] 0 setdash
63.81 143.50 4.79 4.79 r p1
86.21 148.68 4.79 4.79 r p1
108.60 153.86 4.79 4.79 r p1
130.99 159.04 4.79 4.79 r p1
153.38 164.22 4.79 4.79 r p1
175.77 169.40 4.79 4.79 r p1
198.17 174.58 4.79 4.79 r p1
220.56 179.76 4.79 4.79 r p1
242.95 184.94 4.79 4.79 r p1
0.00 0.00 282.75 261.75 cl
/Font2 findfont 19 s
0 0 0 srgb
15.36 225.41 (Experimental Bound V) 0 ta
-1.140 (alidation) tb gr
/Font5 findfont 16 s
151.38 22.29 (b) 0 0 t
/Font1 findfont 16 s
12.96 138.08 (Error) .5 90 t
ep
%%Trailer
%%Pages: 1
%%EOF
